…
  separate(date, into = c('year', 'month', 'day'), sep = '-') %>% 
#? can not use unique(ny_noaa_df, snow)?....object 'snow' not found
  mutate(
    tmin = as.numeric(tmin),
    tmin = tmin / 10,
    tmax = as.numeric(tmax),
    tmax = tmax / 10,
    snow = snow / 10
  )
ny_noaa_df %>% 
  count(snow) %>% 
  arrange(desc(n))
```

    ## # A tibble: 282 x 2
    ##     snow       n
    ##    <dbl>   <int>
    ##  1   0   2008508
    ##  2  NA    381221
    ##  3   2.5   31022
    ##  4   1.3   23095
    ##  5   5.1   18274
    ##  6   7.6   10173
    ##  7   0.8    9962
    ##  8   0.5    9748
    ##  9   3.8    9197
    ## 10   0.3    8790
    ## # ... with 272 more rows
…
